Mini-Project 03 - Visualizing and Maintaining the Green Canopy of NYC
…
dead_fraction

# A tibble: 51 × 4
   council_district total_trees dead_trees dead_fraction
   <chr>                  <int>      <int>         <dbl>
 1 16                      7223        391        0.0541
 2 17                     12830        541        0.0422
 3 15                      9345        390        0.0417
 4 8                       9042        362        0.0400
 5 10                      7510        296        0.0394
 6 14                      7039        257        0.0365
 7 3                      10259        343        0.0334
 8 7                       8236        261        0.0317
 9 34                     12720        399        0.0314
10 9                       9812        294        0.0300
# ℹ 41 more rows
…
Show code

species_manhattan <- tree_join |>
  st_drop_geometry() |>
  filter(!is.na(council_district)) |>            # keep valid districts
  mutate(council_district = as.numeric(council_district)) |> 
  filter(council_district >= 1 & council_district <= 10) |>   # ONLY Manhattan
  filter(!is.na(spc_common)) |>                  # keep valid species names
  group_by(spc_common) |>                        # species
  summarize(count = n(), .groups = "drop") |> 
  arrange(desc(count))

species_manhattan

# A tibble: 130 × 2
   spc_common        count
   <chr>             <int>
 1 honeylocust       17273
 2 Callery pear       9276
 3 ginkgo             7306
 4 pin oak            6063
 5 Sophora            5637
 6 London planetree   5615
 7 Japanese zelkova   4819
 8 littleleaf linden  4330
 9 American elm       2124
10 American linden    2108
# ℹ 120 more rows
…
